Трата -500 RUB Кафе Шоколадница 24.05.2021 0:33:06 +05:00
Трата -400 RUB Продукты Пятерочка 24.05.2021 0:38:53 +05:00
Трата -2000 RUB Бензин IRBIS 24.05.2021 0:38:53 +05:00
Трата -500 RUB Кафе Шоколадница 24.05.2021 0:38:53 +05:00
Трата -400 RUB Продукты Пятерочка 24.05.2021 0:39:11 +05:00
Трата -2000 RUB Бензин IRBIS 24.05.2021 0:39:11 +05:00
Трата -500 RUB Кафе Шоколадница 24.05.2021 0:39:11 +05:00
Трата -400 RUB Продукты Пятерочка 24.05.2021 0:39:27 +05:00
Трата -2000 RUB Бензин IRBIS 24.05.2021 0:39:27 +05:00
Трата -500 RUB Кафе Шоколадница 24.05.2021 0:39:27 +05:00
Трата -400 RUB Продукты Пятерочка 24.05.2021 21:59:15 +05:00
Трата -2000 RUB Бензин IRBIS 24.05.2021 21:59:15 +05:00
Трата -500 RUB Кафе Шоколадница 24.05.2021 21:59:15 +05:00
Трата -400 RUB Продукты Пятерочка 24.05.2021 21:59:23 +05:00
Трата -2000 RUB Бензин IRBIS 24.05.2021 21:59:23 +05:00
Трата -500 RUB Кафе Шоколадница 24.05.2021 21:59:23 +05:00
Трата -401 RUB Продукты Пятерочка 24.05.2021 21:59:43 +05:00
Трата -2001 RUB Бензин IRBIS 24.05.2021 21:59:43 +05:00
Трата -502 RUB Кафе Шоколадница 24.05.2021 21:59:43 +05:00
